{
  "project_info": {
    "project_number": "282599166934",
    "firebase_url": "https://dailyjob-a9619.firebaseio.com",
    "project_id": "dailyjob-a9619",
    "storage_bucket": "dailyjob-a9619.appspot.com"
  },
  "client": [
    {
      "client_info": {
        "mobilesdk_app_id": "1:282599166934:android:cc5ef29ec954e6cd",
        "android_client_info": {
          "package_name": "in.dailyjob.dailyjob"
        }
      },
      "oauth_client": [
        {
          "client_id": "282599166934-jkbk5vdb8n6o0osucf6859hmd8v9sm5b.apps.googleusercontent.com",
          "client_type": 1,
          "android_info": {
            "package_name": "in.dailyjob.dailyjob",
            "certificate_hash": "651da1769435bab17384a69d16e030ed322cfec4"
          }
        },
        {
          "client_id": "282599166934-9hujq936kijj4oo8g11r31qber6s5rbe.apps.googleusercontent.com",
          "client_type": 3
        }
      ],
      "api_key": [
        {
          "current_key": "AIzaSyCd5yBFjC2bGvNn9cF8I8EUPOJLc-0clwQ"
        }
      ],
      "services": {
        "analytics_service": {
          "status": 1
        },
        "appinvite_service": {
          "status": 2,
          "other_platform_oauth_client": [
            {
              "client_id": "282599166934-9hujq936kijj4oo8g11r31qber6s5rbe.apps.googleusercontent.com",
              "client_type": 3
            }
          ]
        },
        "ads_service": {
          "status": 2
        }
      }
    }
  ],
  "configuration_version": "1"
}